output_logs/dump.vcd
$date
	Sat Jan 11 10:12:45 2025
$end
$version
	QuestaSim Version 2024.3_1
$end
$timescale
	1ns
$end

$scope module tb_top $end
$var parameter 32 ! clk_period $end
$var parameter 32 " rst_period $end
$var reg 1 # clk $end
$var reg 1 $ reset_n $end

$scope module i_sram $end
$var wire 1 % address_in [3] $end
$var wire 1 & address_in [2] $end
$var wire 1 ' address_in [1] $end
$var wire 1 ( address_in [0] $end
$var wire 1 ) clk $end
$var wire 1 * cs $end
$var wire 1 + data_in [7] $end
$var wire 1 , data_in [6] $end
$var wire 1 - data_in [5] $end
$var wire 1 . data_in [4] $end
$var wire 1 / data_in [3] $end
$var wire 1 0 data_in [2] $end
$var wire 1 1 data_in [1] $end
$var wire 1 2 data_in [0] $end
$var wire 1 3 rd_en $end
$var wire 1 4 reset_n $end
$var wire 1 5 wr_en $end
$var parameter 32 6 address_size $end
$var parameter 32 7 data_size $end
$var reg 8 8 data_out [7:0] $end

$scope begin Memory_rd $end
$upscope $end

$scope begin Memory_wr $end
$upscope $end
$upscope $end

$scope module i_test_top $end

$scope function PhysicalConnect $end
$upscope $end

$scope task run_test $end
$upscope $end
$upscope $end

$scope module sif $end
$var wire 1 9 clk $end
$var wire 1 : reset_n $end
$var parameter 32 ; address_size $end
$var parameter 32 < data_size $end
$var reg 4 = address_in [3:0] $end
$var reg 1 > cs $end
$var reg 8 ? data_in [7:0] $end
$var reg 8 @ data_out [7:0] $end
$var reg 1 A rd_en $end
$var reg 1 B wr_en $end
$upscope $end

$scope task clk_generate $end
$upscope $end

$scope task reset_period $end
$upscope $end
$upscope $end

$scope begin design_sv_unit $end
$upscope $end

$scope begin s_package $end
$upscope $end

$scope begin std $end
$upscope $end
$enddefinitions $end
#0
$dumpvars
03
15
1*
14
1)
1(
0'
0&
0%
02
11
00
1/
0.
0-
0,
0+
1:
19
b1010 !
b101 "
1#
1$
b100 6
b1000 7
bx 8
b100 ;
b1000 <
b1 =
1>
b1010 ?
bx @
0A
1B
$end
#5
0#
0$
09
0)
0:
04
bz 8
bz @
#10
1#
1$
19
1)
1:
14
0B
1A
05
13
#15
0#
09
0)
#20
1#
19
1)
b1010 8
b1010 @
b10111111 ?
b0 =
1B
0A
0(
12
10
1.
1-
1+
15
03
#25
0#
09
0)
#30
1#
19
1)
b1010010 ?
b1 =
1(
02
00
0/
0-
1,
0+
#35
0#
09
0)
#40
1#
19
1)
b1101000 ?
b10 =
0(
1'
01
1/
0.
1-
#45
0#
09
0)
#50
1#
19
1)
b10111 ?
b11 =
1(
12
11
10
0/
1.
0-
0,
#55
0#
09
0)
#60
1#
19
1)
b1100010 ?
b100 =
0(
0'
1&
02
00
0.
1-
1,
#65
0#
09
0)
#70
1#
19
1)
b10001001 ?
b101 =
1(
12
01
1/
0-
0,
1+
#75
0#
09
0)
#80
1#
19
1)
b10001010 ?
b110 =
0(
1'
02
11
#85
0#
09
0)
#90
1#
19
1)
b100101 ?
b111 =
1(
12
01
10
0/
1-
0+
#95
0#
09
0)
#100
1#
19
1)
b11010001 ?
b1000 =
0(
0'
0&
1%
00
1.
0-
1,
1+
#105
0#
09
0)
#110
1#
19
1)
b1011011 ?
b1001 =
1(
11
1/
0+
#115
0#
09
0)
#120
1#
19
1)
b0 ?
b1010 =
0(
1'
02
01
0/
0.
0,
#125
0#
09
0)
#130
1#
19
1)
b1010 ?
b1011 =
1(
11
1/
#135
0#
09
0)
#140
1#
19
1)
b1101 ?
b1100 =
0(
0'
1&
12
01
10
#145
0#
09
0)
#150
1#
19
1)
b11000111 ?
b1101 =
1(
11
0/
1,
1+
#155
0#
09
0)
#160
1#
19
1)
b101001 ?
b1110 =
0(
1'
01
00
1/
1-
0,
0+
#165
0#
09
0)
#170
1#
19
1)
b10000000 ?
b1111 =
1(
02
0/
0-
1+
#175
0#
09
0)
#180
1#
19
1)
b0 ?
b0 =
0B
1A
0(
0'
0&
0%
0+
05
13
#185
0#
09
0)
#190
1#
19
1)
b10111111 8
b10111111 @
b1 =
1(
#195
0#
09
0)
#200
1#
19
1)
b1010010 8
b1010010 @
b10 =
0(
1'
#205
0#
09
0)
#210
1#
19
1)
b1101000 8
b1101000 @
b11 =
1(
#215
0$
0#
0:
04
09
0)
bz 8
bz @
#220
1$
1#
1:
14
19
1)
b0 8
b0 @
b100 =
0(
0'
1&
#225
0#
09
0)
#230
1#
19
1)
b1100010 8
b1100010 @
b101 =
1(
#235
0#
09
0)
#240
1#
19
1)
b10001001 8
b10001001 @
b110 =
0(
1'
#245
0#
09
0)
#250
1#
19
1)
b10001010 8
b10001010 @
b111 =
1(
#255
0#
09
0)
#260
1#
19
1)
b100101 8
b100101 @
b1000 =
0(
0'
0&
1%
#265
0#
09
0)
#270
1#
19
1)
b11010001 8
b11010001 @
b1001 =
1(
#275
0#
09
0)
#280
1#
19
1)
b1011011 8
b1011011 @
b1010 =
0(
1'
#285
0#
09
0)
#290
1#
19
1)
b0 8
b0 @
b1011 =
1(
#295
0#
09
0)
#300
1#
19
1)
b1010 8
b1010 @
b1100 =
0(
0'
1&
#305
0#
09
0)
#310
1#
19
1)
b1101 8
b1101 @
b1101 =
1(
#315
0#
09
0)
#320
1#
19
1)
b11000111 8
b11000111 @
b1110 =
0(
1'
#325
0#
09
0)
#330
1#
19
1)
b101001 8
b101001 @
b1111 =
1(
#335
0#
09
0)
#340
1#
19
1)
b10000000 8
b10000000 @
b10111010 ?
b1 =
1B
0A
0'
0&
0%
11
1/
1.
1-
1+
15
03
#345
0#
09
0)
#350
1#
19
1)
b101001 ?
b1100 =
0(
1&
1%
12
01
0.
0+
#355
0#
09
0)
#360
1#
19
1)
b11110101 ?
b1011 =
1(
1'
0&
10
0/
1.
1,
1+
#365
0#
09
0)
#370
1#
19
1)
b1100011 ?
b100 =
0(
0'
1&
0%
11
00
0.
0+
#375
0#
09
0)
#380
1#
19
1)
b1011011 ?
b11 =
1(
1'
0&
1/
1.
0-
#385
0#
09
0)
#390
1#
19
1)
b1010100 ?
b1000 =
0(
0'
1%
02
01
10
0/
#395
0#
09
0)
#400
1#
19
1)
b1101111 ?
b1001 =
1(
12
11
1/
0.
1-
#405
0#
09
0)
#410
1#
19
1)
b11111101 ?
b101 =
1&
0%
01
1.
1+
#415
0#
09
0)
#420
1#
19
1)
b110110 ?
b1100 =
0(
1%
02
11
0/
0,
0+
#425
0$
0#
0:
04
09
0)
bz 8
bz @
#430
1$
1#
1:
14
19
1)
b100100 ?
b1011 =
1(
1'
0&
01
0.
#435
0#
09
0)
#440
1#
19
1)
b101001 ?
b1000 =
0(
0'
12
00
1/
#445
0#
09
0)
#450
1#
19
1)
b11111101 ?
b1001 =
1(
10
1.
1,
1+
#455
0#
09
0)
#460
1#
19
1)
b10100110 ?
b1 =
0%
02
11
0/
0.
0,
#465
0#
09
0)
#470
1#
19
1)
b11000101 ?
b11 =
1'
12
01
0-
1,
#475
0#
09
0)
#480
1#
19
1)
b1000110 ?
b1101 =
0'
1&
1%
02
11
0+
#485
0#
09
0)
#490
1#
19
1)
b10000001 ?
b1010 =
0(
1'
0&
12
01
00
0,
1+
#495
0#
09
0)
#500
1#
19
1)
b0 ?
b1000 =
0B
1A
0'
02
0+
05
13
#505
0#
09
0)
#510
1#
19
1)
b101001 8
b101001 @
b1100 =
1&
#515
0#
09
0)
#520
1#
19
1)
b110110 8
b110110 @
b1101 =
1(
#525
0#
09
0)
#530
1#
19
1)
b1000110 8
b1000110 @
b11 =
1'
0&
0%
#535
0#
09
0)
#540
1#
19
1)
b11000101 8
b11000101 @
b1001 =
0'
1%
#545
0#
09
0)
#550
1#
19
1)
b11111101 8
b11111101 @
b1100 =
0(
1&
#555
0#
09
0)
#560
1#
19
1)
b110110 8
b110110 @
b1001 =
1(
0&
#565
0#
09
0)
#570
1#
19
1)
b11111101 8
b11111101 @
b1010 =
0(
1'
#575
0#
09
0)
#580
1#
19
1)
b10000001 8
b10000001 @
b1000 =
0'
#585
0#
09
0)
#590
1#
19
1)
b101001 8
b101001 @
b100 =
1&
0%
#595
0#
09
0)
#600
1#
19
1)
b1100011 8
b1100011 @
b11 =
1(
1'
0&
#605
0#
09
0)
#610
1#
19
1)
b11000101 8
b11000101 @
b1 =
0'
#615
0#
09
0)
#620
1#
19
1)
b10100110 8
b10100110 @
b101 =
1&
#625
0#
09
0)
#630
1#
19
1)
b11111101 8
b11111101 @
b1011 =
1'
0&
1%
#635
0#
09
0)
#640
1#
19
1)
b100100 8
b100100 @
b1 =
0'
0%
#645
0#
09
0)
#650
1#
19
1)
b10100110 8
b10100110 @
b1011 =
1'
1%
#655
0#
09
0)
#660
1#
19
1)
b100100 8
b100100 @
b11100110 ?
b0 =
1B
0A
0(
0'
0%
11
10
1-
1,
1+
15
03
#665
0#
09
0)
#670
1#
19
1)
b0 ?
0B
1A
01
00
0-
0,
0+
05
13
#675
0#
09
0)
#680
1#
19
1)
b11100110 8
b11100110 @
b101111 ?
b1 =
1B
0A
1(
12
11
10
1/
1-
15
03
#685
0#
09
0)
#690
1#
19
1)
b0 ?
0B
1A
02
01
00
0/
0-
05
13
#695
0#
09
0)
#700
1#
19
1)
b101111 8
b101111 @
b11011000 ?
b10 =
1B
0A
0(
1'
1/
1.
1,
1+
15
03
#705
0#
09
0)
#710
1#
19
1)
b0 ?
0B
1A
0/
0.
0,
0+
05
13
#715
0#
09
0)
#720
1#
19
1)
b11011000 8
b11011000 @
b10001010 ?
b11 =
1B
0A
1(
11
1/
1+
15
03
#725
0#
09
0)
#730
1#
19
1)
b0 ?
0B
1A
01
0/
0+
05
13
#735
0$
0#
0:
04
09
0)
bz 8
bz @
#740
1$
1#
1:
14
19
1)
b0 8
b0 @
b11011100 ?
b100 =
1B
0A
0(
0'
1&
10
1/
1.
1,
1+
15
03
#745
0#
09
0)
#750
1#
19
1)
b0 ?
0B
1A
00
0/
0.
0,
0+
05
13
#755
0#
09
0)
#760
1#
19
1)
b11011100 8
b11011100 @
b111001 ?
b101 =
1B
0A
1(
12
1/
1.
1-
15
03
#765
0#
09
0)
#770
1#
19
1)
b0 ?
0B
1A
02
0/
0.
0-
05
13
#775
0#
09
0)
#780
1#
19
1)
b111001 8
b111001 @
b11010101 ?
b110 =
1B
0A
0(
1'
12
10
1.
1,
1+
15
03
#785
0#
09
0)
#790
1#
19
1)
b0 ?
0B
1A
02
00
0.
0,
0+
05
13
#795
0#
09
0)
#800
1#
19
1)
b11010101 8
b11010101 @
b10101000 ?
b111 =
0>
1B
0A
1(
1/
1-
1+
0*
15
03
#805
0#
09
0)
#810
1#
19
1)
b0 ?
1>
0B
1A
0/
0-
0+
1*
05
13
#815
0#
09
0)
#820
1#
19
1)
b100101 8
b100101 @
b11011011 ?
b1000 =
1B
0A
0(
0'
0&
1%
12
11
1/
1.
1,
1+
15
03
#825
0#
09
0)
#830
1#
19
1)
b0 ?
0B
1A
02
01
0/
0.
0,
0+
05
13
#835
0#
09
0)
#840
1#
19
1)
b11011011 8
b11011011 @
b11010111 ?
b1001 =
1B
0A
1(
12
11
10
1.
1,
1+
15
03
#845
0#
09
0)
#850
1#
19
1)
b0 ?
0B
1A
02
01
00
0.
0,
0+
05
13
#855
0#
09
0)
#860
1#
19
1)
b11010111 8
b11010111 @
b11101010 ?
b1010 =
1B
0A
0(
1'
11
1/
1-
1,
1+
15
03
#865
0#
09
0)
#870
1#
19
1)
b0 ?
0B
1A
01
0/
0-
0,
0+
05
13
#875
0#
09
0)
#880
1#
19
1)
b11101010 8
b11101010 @
b11011001 ?
b1011 =
1B
0A
1(
12
1/
1.
1,
1+
15
03
#885
0#
09
0)
#890
1#
19
1)
b0 ?
0B
1A
02
0/
0.
0,
0+
05
13
#895
0#
09
0)
#900
1#
19
1)
b11011001 8
b11011001 @
b11111110 ?
b1100 =
1B
0A
0(
0'
1&
11
10
1/
1.
1-
1,
1+
15
03
#905
0#
09
0)
#910
1#
19
1)
b0 ?
0B
1A
01
00
0/
0.
0-
0,
0+
05
13
#915
0#
09
0)
#920
1#
19
1)
b11111110 8
b11111110 @
b11 ?
b1101 =
1B
0A
1(
12
11
15
03
#925
0#
09
0)
#930
1#
19
1)
b0 ?
0B
1A
02
01
05
13
#935
0#
09
0)
#940
1#
19
1)
b11 8
b11 @
b10000000 ?
b1110 =
0>
1B
0A
0(
1'
1+
0*
15
03
#945
0#
09
0)
#950
1#
19
1)
b0 ?
1>
0B
1A
0+
1*
05
13
#955
0#
09
0)
#960
1#
19
1)
b101001 8
b101001 @
b10110101 ?
b1111 =
1B
0A
1(
12
10
1.
1-
1+
15
03
#965
0#
09
0)
#970
1#
19
1)
b0 ?
0B
1A
02
00
0.
0-
0+
05
13
#975
0#
09
0)
#980
1#
19
1)
b10110101 8
b10110101 @
b11011111 ?
b1000 =
0A
0(
0'
0&
12
11
10
1/
1.
1,
1+
03
#985
0#
09
0)
#990
1#
19
1)
b10011000 ?
b111 =
0>
1B
1(
1'
1&
0%
02
01
00
0,
0*
15
#995
0#
09
0)
#1000
1#
19
1)
b101101 ?
b1 =
1>
0B
0'
0&
12
10
0.
1-
0+
1*
05
#1005
0#
09
0)
#1010
1#
19
1)
b1110000 ?
b1101 =
1B
1A
1&
1%
02
00
0/
1.
1,
15
13
#1015
0#
09
0)
#1020
1#
19
1)
b1100000 ?
b1 =
0>
0B
0A
0&
0%
0.
0*
05
03
#1025
0#
09
0)
#1030
1#
19
1)
b10100100 ?
b1001 =
1>
1B
1A
1%
10
0,
1+
1*
15
13
#1035
0#
09
0)
#1040
1#
19
1)
b1101101 ?
b1000 =
0>
0A
0(
12
1/
1,
0+
0*
03
#1045
0$
0#
0:
04
09
0)
bz 8
bz @
#1050
1$
1#
1:
14
19
1)
b10010110 ?
b111 =
1(
1'
1&
0%
02
11
0/
1.
0-
0,
1+
#1055
0#
09
0)
#1060
1#
19
1)
b1111011 ?
b110 =
1>
0B
1A
0(
12
00
1/
1-
1,
0+
1*
05
13
#1065
0#
09
0)
#1070
1#
19
1)
b11010101 8
b11010101 @
b11111001 ?
b1001 =
0A
1(
0'
0&
1%
01
1+
03
#1075
0#
09
0)
#1080
1#
19
1)
b11000101 ?
b110 =
1A
0(
1'
1&
0%
10
0/
0.
0-
13
#1085
0#
09
0)
#1090
1#
19
1)
b1001110 ?
b1100 =
1B
0A
0'
1%
02
11
1/
0+
15
03
#1095
0#
09
0)
#1100
1#
19
1)
b1101010 ?
b1101 =
1(
00
1-
#1105
0#
09
0)
#1110
1#
19
1)
b11001111 ?
b1001 =
0>
1A
0&
12
10
0-
1+
0*
13
#1115
0#
09
0)
#1120
1#
19
1)
b10001100 ?
b1100 =
1>
0A
0(
1&
02
01
0,
1*
03
#1125
0#
09
0)
#1130
1#
19
1)
b11111110 ?
b1011 =
0>
1(
1'
0&
11
1.
1-
1,
0*
#1135
0#
09
0)
#1140
1#
19
1)
b11 ?
b101 =
1>
0B
1A
0'
1&
0%
12
00
0/
0.
0-
0,
0+
1*
05
13
#1145
0#
09
0)
#1150
1#
19
1)
b111001 8
b111001 @
b10110 ?
b1 =
0&
02
10
1.
#1155
0#
09
0)
#1160
1#
19
1)
b101111 8
b101111 @
b1111001 ?
b1011 =
0>
0A
1'
1%
12
01
00
1/
1-
1,
0*
03
#1165
0#
09
0)
#1170
1#
19
1)
b11110100 ?
b0 =
1>
0(
0'
0%
02
10
0/
1+
1*
#1175
0#
09
0)
#1180
1#
19
1)
b1000111 ?
b1 =
0>
1A
1(
12
11
0.
0-
0+
0*
13
#1185
0#
09
0)
#1190
1#
19
1)
b110010 ?
b1000 =
1B
0A
0(
1%
02
00
1.
1-
0,
15
03
#1195
0#
09
0)
#1200
1#
19
1)
b10100011 ?
b1100 =
0B
1A
1&
12
0.
1+
05
13
#1205
0#
09
0)
#1210
1#
19
1)
b11011011 ?
b0 =
1>
0&
0%
1/
1.
0-
1,
1*
#1215
0#
09
0)
#1220
1#
19
1)
b11100110 8
b11100110 @
b100100 ?
b1111 =
1B
0A
1(
1'
1&
1%
02
01
10
0/
0.
1-
0,
0+
15
03
#1225
0#
09
0)
#1230
1#
19
1)
b10011000 ?
b1101 =
0>
1A
0'
00
1/
1.
0-
1+
0*
13
#1235
0#
09
0)
#1240
1#
19
1)
b1111000 ?
b1011 =
1>
0A
1'
0&
1-
1,
0+
1*
03
#1245
0#
09
0)
#1250
1#
19
1)
b1101101 ?
b10 =
0>
0(
0%
12
10
0.
0*
#1255
0#
09
0)
#1260
1#
19
1)
b11001 ?
b1100 =
1>
0B
1A
0'
1&
1%
00
1.
0-
0,
1*
05
13
#1265
0#
09
0)
#1270
1#
19
1)
b10001100 8
b10001100 @
b11011001 ?
b1011 =
0>
1B
1(
1'
0&
1,
1+
0*
15
#1275
0#
09
0)
#1280
1#
19
1)
b1010011 ?
b100 =
0B
0(
0'
1&
0%
11
0/
0+
05
#1285
0#
09
0)
#1290
1#
19
1)
b10100101 ?
b1101 =
1B
1(
1%
01
10
0.
1-
0,
1+
15
