output_logs/qrun.log
QuestaSim-64 qrun 2024.3_1 Utility 2024.10 Oct 17 2024
Start time: 10:12:44 on Jan 11,2025
qrun -batch -access=rw+/. -timescale 1ns/1ns -mfcu design.sv testbench.sv -voptargs="+acc=npr" -do " run -all; exit" 
Creating library 'qrun.out/work'.
QuestaSim-64 vlog 2024.3_1 Compiler 2024.10 Oct 17 2024
Start time: 10:12:44 on Jan 11,2025
vlog -timescale 1ns/1ns -mfcu design.sv testbench.sv -work qrun.out/work -statslog qrun.out/stats_log -writesessionid "+qrun.out/top_dus" -csession=incr 
-- Compiling module single_port_ram
-- Compiling interface s_interface
-- Compiling package s_package
** Warning: ** while parsing file included at testbench.sv(2)
** while parsing file included at test_top.sv(1)
** at generator.sv(49): (vlog-2240) Treating stand-alone use of function 'randomize' as an implicit VOID cast.
** Warning: ** while parsing file included at testbench.sv(2)
** while parsing file included at test_top.sv(1)
** at generator.sv(80): (vlog-2240) Treating stand-alone use of function 'randomize' as an implicit VOID cast.
** Warning: ** while parsing file included at testbench.sv(2)
** while parsing file included at test_top.sv(1)
** at generator.sv(113): (vlog-2240) Treating stand-alone use of function 'randomize' as an implicit VOID cast.
** Warning: ** while parsing file included at testbench.sv(2)
** while parsing file included at test_top.sv(1)
** at generator.sv(138): (vlog-2240) Treating stand-alone use of function 'randomize' as an implicit VOID cast.
-- Compiling package design_sv_unit
-- Importing package s_package
-- Compiling program test_top
-- Compiling module tb_top

Top level modules:
	tb_top
End time: 10:12:44 on Jan 11,2025, Elapsed time: 0:00:00
Errors: 0, Warnings: 4
QuestaSim-64 vopt 2024.3_1 Compiler 2024.10 Oct 17 2024
** Warning: (vopt-10587) Some optimizations are turned off because the +acc switch is in effect. This will cause your simulation to run slowly. Please use -access/-debug to maintain needed visibility. The +acc switch would be deprecated in a future release.
Start time: 10:12:44 on Jan 11,2025
vopt -access=rw+/. -timescale 1ns/1ns -mfcu "+acc=npr" -findtoplevels qrun.out/work+1+ -work qrun.out/work -statslog qrun.out/stats_log -csession=incr -o qrun_opt -csessionid=2 

Top level modules:
	tb_top

Analyzing design...
-- Loading module tb_top
-- Loading interface s_interface
-- Loading module single_port_ram
-- Loading program test_top
Optimizing 7 design-units (inlining 0/4 module instances):
-- Optimizing package s_package(fast)
** Warning: generator.sv(49): (vopt-2240) Treating stand-alone use of function 'randomize' as an implicit VOID cast.
** Warning: generator.sv(80): (vopt-2240) Treating stand-alone use of function 'randomize' as an implicit VOID cast.
** Warning: generator.sv(113): (vopt-2240) Treating stand-alone use of function 'randomize' as an implicit VOID cast.
** Warning: generator.sv(138): (vopt-2240) Treating stand-alone use of function 'randomize' as an implicit VOID cast.
-- Optimizing package design_sv_unit(fast)
-- Optimizing module tb_top(fast)
-- Optimizing module single_port_ram(fast)
-- Optimizing program test_top(fast)
-- Optimizing interface s_interface(fast__2)
-- Optimizing interface s_interface(fast)
Optimized design name is qrun_opt
End time: 10:12:45 on Jan 11,2025, Elapsed time: 0:00:01
Errors: 0, Warnings: 5
# vsim -batch -lib qrun.out/work -do " run -all; exit" -statslog qrun.out/stats_log qrun_opt -appendlog -l qrun.log 
# Start time: 10:12:45 on Jan 11,2025
# //  Questa Sim-64
# //  Version 2024.3_1 linux_x86_64 Oct 17 2024
# //
# // Unpublished work. Copyright 2024 Siemens
# //
# // This material contains trade secrets or otherwise confidential information
# // owned by Siemens Industry Software Inc. or its affiliates (collectively,
# // "SISW"), or its licensors. Access to and use of this information is strictly
# // limited as set forth in the Customer's applicable agreements with SISW.
# //
# // This material may not be copied, distributed, or otherwise disclosed outside
# // of the Customer's facilities without the express written permission of SISW,
# // and may not be used in any way not expressly authorized by SISW.
# //
# Loading sv_std.std
# Loading work.s_interface(fast)
# Loading work.s_package(fast)
# Loading work.design_sv_unit(fast)
# Loading work.tb_top(fast)
# Loading work.s_interface(fast__2)
# Loading work.single_port_ram(fast)
# Loading work.test_top(fast)
# 
# run -all
# inside tb_top
# inside test_top
# inside test
# inside environment
# inside cov collector
# inside gen build
# nothing inside driver build
# inside ip mon build
# inside op mon build
# nothing inside scoreboard build
# coverage collector build
# gen single write successful '{data_in:10, address_in:1, wr_en:1, rd_en:0, cs:1, data_out:0}
# gen single read successful '{data_in:10, address_in:1, wr_en:0, rd_en:1, cs:1, data_out:0}
# series write mailbox numbers are 18
# series read mailbox numbers are 34
# random write array is '{1, 12, 11, 4, 3, 8, 9, 5, 12, 11, 8, 9, 1, 3, 13, 10} mailbox numbers are 50
# random read array is '{8, 12, 13, 3, 9, 12, 9, 10, 8, 4, 3, 1, 5, 11, 1, 11} mailbox numbers are 66
# alternate w & r mailbox numbers are 98
# packet at driver is '{data_in:10, address_in:1, wr_en:1, rd_en:0, cs:1, data_out:0}
# test cases failed !! pass count=0 and fail count=0
# packet at driver is '{data_in:10, address_in:1, wr_en:0, rd_en:1, cs:1, data_out:0}
# ip mon data (from vif) is '{data_in:10, address_in:1, wr_en:1, rd_en:0, cs:1, data_out:0}
# op filter
# packet received from ip mon to coverage is '{data_in:10, address_in:1, wr_en:1, rd_en:0, cs:1, data_out:0}
# ip data at score is '{data_in:10, address_in:1, wr_en:1, rd_en:0, cs:1, data_out:0}
# ip associate array is '{1:10 } and size is 1
# packet at driver is '{data_in:191, address_in:0, wr_en:1, rd_en:0, cs:1, data_out:0}
# ip filter
# op mon data (from vif) is '{data_in:0, address_in:1, wr_en:0, rd_en:1, cs:1, data_out:10}
# packet received from op mon to coverage is '{data_in:0, address_in:1, wr_en:0, rd_en:1, cs:1, data_out:10}
# functional coverage using get coverage is 33
# functional coverage using get instant coverage is 33
# op data at score is '{data_in:0, address_in:1, wr_en:0, rd_en:1, cs:1, data_out:10}
# op associate array is '{1:10 } and size is 1
# addr = 1
# time: 20 ns, data matched !! exp=10 act=10
#  
# packet at driver is '{data_in:82, address_in:1, wr_en:1, rd_en:0, cs:1, data_out:0}
# ip mon data (from vif) is '{data_in:191, address_in:0, wr_en:1, rd_en:0, cs:1, data_out:0}
# op filter
# packet received from ip mon to coverage is '{data_in:191, address_in:0, wr_en:1, rd_en:0, cs:1, data_out:0}
# ip data at score is '{data_in:191, address_in:0, wr_en:1, rd_en:0, cs:1, data_out:0}
# ip associate array is '{0:191, 1:10 } and size is 2
# packet at driver is '{data_in:104, address_in:2, wr_en:1, rd_en:0, cs:1, data_out:0}
# ip mon data (from vif) is '{data_in:82, address_in:1, wr_en:1, rd_en:0, cs:1, data_out:0}
# op filter
# ip data at score is '{data_in:82, address_in:1, wr_en:1, rd_en:0, cs:1, data_out:0}
# ip associate array is '{0:191, 1:82 } and size is 2
# packet at driver is '{data_in:23, address_in:3, wr_en:1, rd_en:0, cs:1, data_out:0}
# ip mon data (from vif) is '{data_in:104, address_in:2, wr_en:1, rd_en:0, cs:1, data_out:0}
# op filter
# ip data at score is '{data_in:104, address_in:2, wr_en:1, rd_en:0, cs:1, data_out:0}
# ip associate array is '{0:191, 1:82, 2:104 } and size is 3
# packet at driver is '{data_in:98, address_in:4, wr_en:1, rd_en:0, cs:1, data_out:0}
# ip mon data (from vif) is '{data_in:23, address_in:3, wr_en:1, rd_en:0, cs:1, data_out:0}
# op filter
# ip data at score is '{data_in:23, address_in:3, wr_en:1, rd_en:0, cs:1, data_out:0}
# ip associate array is '{0:191, 1:82, 2:104, 3:23 } and size is 4
# packet at driver is '{data_in:137, address_in:5, wr_en:1, rd_en:0, cs:1, data_out:0}
# ip mon data (from vif) is '{data_in:98, address_in:4, wr_en:1, rd_en:0, cs:1, data_out:0}
# op filter
# ip data at score is '{data_in:98, address_in:4, wr_en:1, rd_en:0, cs:1, data_out:0}
# ip associate array is '{0:191, 1:82, 2:104, 3:23, 4:98 } and size is 5
# packet at driver is '{data_in:138, address_in:6, wr_en:1, rd_en:0, cs:1, data_out:0}
# ip mon data (from vif) is '{data_in:137, address_in:5, wr_en:1, rd_en:0, cs:1, data_out:0}
# op filter
# ip data at score is '{data_in:137, address_in:5, wr_en:1, rd_en:0, cs:1, data_out:0}
# ip associate array is '{0:191, 1:82, 2:104, 3:23, 4:98, 5:137 } and size is 6
# packet at driver is '{data_in:37, address_in:7, wr_en:1, rd_en:0, cs:1, data_out:0}
# ip mon data (from vif) is '{data_in:138, address_in:6, wr_en:1, rd_en:0, cs:1, data_out:0}
# op filter
# ip data at score is '{data_in:138, address_in:6, wr_en:1, rd_en:0, cs:1, data_out:0}
# ip associate array is '{0:191, 1:82, 2:104, 3:23, 4:98, 5:137, 6:138 } and size is 7
# packet at driver is '{data_in:209, address_in:8, wr_en:1, rd_en:0, cs:1, data_out:0}
# ip mon data (from vif) is '{data_in:37, address_in:7, wr_en:1, rd_en:0, cs:1, data_out:0}
# op filter
# ip data at score is '{data_in:37, address_in:7, wr_en:1, rd_en:0, cs:1, data_out:0}
# ip associate array is '{0:191, 1:82, 2:104, 3:23, 4:98, 5:137, 6:138, 7:37 } and size is 8
# packet at driver is '{data_in:91, address_in:9, wr_en:1, rd_en:0, cs:1, data_out:0}
# ip mon data (from vif) is '{data_in:209, address_in:8, wr_en:1, rd_en:0, cs:1, data_out:0}
# op filter
# ip data at score is '{data_in:209, address_in:8, wr_en:1, rd_en:0, cs:1, data_out:0}
# ip associate array is '{0:191, 1:82, 2:104, 3:23, 4:98, 5:137, 6:138, 7:37, 8:209 } and size is 9
# packet at driver is '{data_in:0, address_in:10, wr_en:1, rd_en:0, cs:1, data_out:0}
# ip mon data (from vif) is '{data_in:91, address_in:9, wr_en:1, rd_en:0, cs:1, data_out:0}
# op filter
# ip data at score is '{data_in:91, address_in:9, wr_en:1, rd_en:0, cs:1, data_out:0}
# ip associate array is '{0:191, 1:82, 2:104, 3:23, 4:98, 5:137, 6:138, 7:37, 8:209, 9:91 } and size is 10
# packet at driver is '{data_in:10, address_in:11, wr_en:1, rd_en:0, cs:1, data_out:0}
# ip mon data (from vif) is '{data_in:0, address_in:10, wr_en:1, rd_en:0, cs:1, data_out:0}
# op filter
# ip data at score is '{data_in:0, address_in:10, wr_en:1, rd_en:0, cs:1, data_out:0}
# ip associate array is '{0:191, 1:82, 2:104, 3:23, 4:98, 5:137, 6:138, 7:37, 8:209, 9:91, 10:0 } and size is 11
# packet at driver is '{data_in:13, address_in:12, wr_en:1, rd_en:0, cs:1, data_out:0}
# ip mon data (from vif) is '{data_in:10, address_in:11, wr_en:1, rd_en:0, cs:1, data_out:0}
# op filter
# ip data at score is '{data_in:10, address_in:11, wr_en:1, rd_en:0, cs:1, data_out:0}
# ip associate array is '{0:191, 1:82, 2:104, 3:23, 4:98, 5:137, 6:138, 7:37, 8:209, 9:91, 10:0, 11:10 } and size is 12
# packet at driver is '{data_in:199, address_in:13, wr_en:1, rd_en:0, cs:1, data_out:0}
# ip mon data (from vif) is '{data_in:13, address_in:12, wr_en:1, rd_en:0, cs:1, data_out:0}
# op filter
# ip data at score is '{data_in:13, address_in:12, wr_en:1, rd_en:0, cs:1, data_out:0}
# ip associate array is '{0:191, 1:82, 2:104, 3:23, 4:98, 5:137, 6:138, 7:37, 8:209, 9:91, 10:0, 11:10, 12:13 } and size is 13
# packet at driver is '{data_in:41, address_in:14, wr_en:1, rd_en:0, cs:1, data_out:0}
# ip mon data (from vif) is '{data_in:199, address_in:13, wr_en:1, rd_en:0, cs:1, data_out:0}
# op filter
# ip data at score is '{data_in:199, address_in:13, wr_en:1, rd_en:0, cs:1, data_out:0}
# ip associate array is '{0:191, 1:82, 2:104, 3:23, 4:98, 5:137, 6:138, 7:37, 8:209, 9:91, 10:0, 11:10, 12:13, 13:199 } and size is 14
# packet at driver is '{data_in:128, address_in:15, wr_en:1, rd_en:0, cs:1, data_out:0}
# ip mon data (from vif) is '{data_in:41, address_in:14, wr_en:1, rd_en:0, cs:1, data_out:0}
# op filter
# ip data at score is '{data_in:41, address_in:14, wr_en:1, rd_en:0, cs:1, data_out:0}
# ip associate array is '{0:191, 1:82, 2:104, 3:23, 4:98, 5:137, 6:138, 7:37, 8:209, 9:91, 10:0, 11:10, 12:13, 13:199, 14:41 } and size is 15
# packet at driver is '{data_in:0, address_in:0, wr_en:0, rd_en:1, cs:1, data_out:0}
# ip mon data (from vif) is '{data_in:128, address_in:15, wr_en:1, rd_en:0, cs:1, data_out:0}
# op filter
# ip data at score is '{data_in:128, address_in:15, wr_en:1, rd_en:0, cs:1, data_out:0}
# ip associate array is '{0:191, 1:82, 2:104, 3:23, 4:98, 5:137, 6:138, 7:37, 8:209, 9:91, 10:0, 11:10, 12:13, 13:199, 14:41, 15:128 } and size is 16
# packet at driver is '{data_in:0, address_in:1, wr_en:0, rd_en:1, cs:1, data_out:0}
# ip filter
# op mon data (from vif) is '{data_in:0, address_in:0, wr_en:0, rd_en:1, cs:1, data_out:191}
# packet received from op mon to coverage is '{data_in:0, address_in:0, wr_en:0, rd_en:1, cs:1, data_out:191}
# functional coverage using get coverage is 37
# functional coverage using get instant coverage is 37
# packet received from ip mon to coverage is '{data_in:82, address_in:1, wr_en:1, rd_en:0, cs:1, data_out:0}
# op data at score is '{data_in:0, address_in:0, wr_en:0, rd_en:1, cs:1, data_out:191}
# op associate array is '{0:191, 1:10 } and size is 2
# addr = 0
# time: 190 ns, data matched !! exp=191 act=191
#  
# packet at driver is '{data_in:0, address_in:2, wr_en:0, rd_en:1, cs:1, data_out:0}
# ip filter
# op mon data (from vif) is '{data_in:0, address_in:1, wr_en:0, rd_en:1, cs:1, data_out:82}
# packet received from op mon to coverage is '{data_in:0, address_in:1, wr_en:0, rd_en:1, cs:1, data_out:82}
# functional coverage using get coverage is 39
# functional coverage using get instant coverage is 39
# packet received from ip mon to coverage is '{data_in:104, address_in:2, wr_en:1, rd_en:0, cs:1, data_out:0}
# op data at score is '{data_in:0, address_in:1, wr_en:0, rd_en:1, cs:1, data_out:82}
# op associate array is '{0:191, 1:82 } and size is 2
# addr = 1
# time: 200 ns, data matched !! exp=82 act=82
#  
# packet at driver is '{data_in:0, address_in:3, wr_en:0, rd_en:1, cs:1, data_out:0}
# ip filter
# op mon data (from vif) is '{data_in:0, address_in:2, wr_en:0, rd_en:1, cs:1, data_out:104}
# packet received from op mon to coverage is '{data_in:0, address_in:2, wr_en:0, rd_en:1, cs:1, data_out:104}
# functional coverage using get coverage is 42
# functional coverage using get instant coverage is 42
# packet received from ip mon to coverage is '{data_in:23, address_in:3, wr_en:1, rd_en:0, cs:1, data_out:0}
# op data at score is '{data_in:0, address_in:2, wr_en:0, rd_en:1, cs:1, data_out:104}
# op associate array is '{0:191, 1:82, 2:104 } and size is 3
# addr = 2
# time: 210 ns, data matched !! exp=104 act=104
#  
# packet at driver is '{data_in:0, address_in:4, wr_en:0, rd_en:1, cs:1, data_out:0}
# ip filter
# op mon data (from vif) is '{data_in:0, address_in:3, wr_en:0, rd_en:1, cs:1, data_out:0}
# packet received from op mon to coverage is '{data_in:0, address_in:3, wr_en:0, rd_en:1, cs:1, data_out:0}
# functional coverage using get coverage is 43
# functional coverage using get instant coverage is 43
# packet received from ip mon to coverage is '{data_in:98, address_in:4, wr_en:1, rd_en:0, cs:1, data_out:0}
# op data at score is '{data_in:0, address_in:3, wr_en:0, rd_en:1, cs:1, data_out:0}
# op associate array is '{0:191, 1:82, 2:104, 3:0 } and size is 4
# addr = 3
# time: 220 ns, data not matched !! exp=23 act=0
#  
# packet at driver is '{data_in:0, address_in:5, wr_en:0, rd_en:1, cs:1, data_out:0}
# ip filter
# op mon data (from vif) is '{data_in:0, address_in:4, wr_en:0, rd_en:1, cs:1, data_out:98}
# packet received from op mon to coverage is '{data_in:0, address_in:4, wr_en:0, rd_en:1, cs:1, data_out:98}
# functional coverage using get coverage is 44
# functional coverage using get instant coverage is 44
# packet received from ip mon to coverage is '{data_in:137, address_in:5, wr_en:1, rd_en:0, cs:1, data_out:0}
# op data at score is '{data_in:0, address_in:4, wr_en:0, rd_en:1, cs:1, data_out:98}
# op associate array is '{0:191, 1:82, 2:104, 3:0, 4:98 } and size is 5
# addr = 4
# time: 230 ns, data matched !! exp=98 act=98
#  
# packet at driver is '{data_in:0, address_in:6, wr_en:0, rd_en:1, cs:1, data_out:0}
# ip filter
# op mon data (from vif) is '{data_in:0, address_in:5, wr_en:0, rd_en:1, cs:1, data_out:137}
# packet received from op mon to coverage is '{data_in:0, address_in:5, wr_en:0, rd_en:1, cs:1, data_out:137}
# functional coverage using get coverage is 48
# functional coverage using get instant coverage is 48
# packet received from ip mon to coverage is '{data_in:138, address_in:6, wr_en:1, rd_en:0, cs:1, data_out:0}
# op data at score is '{data_in:0, address_in:5, wr_en:0, rd_en:1, cs:1, data_out:137}
# op associate array is '{0:191, 1:82, 2:104, 3:0, 4:98, 5:137 } and size is 6
# addr = 5
# time: 240 ns, data matched !! exp=137 act=137
#  
# packet at driver is '{data_in:0, address_in:7, wr_en:0, rd_en:1, cs:1, data_out:0}
# ip filter
# op mon data (from vif) is '{data_in:0, address_in:6, wr_en:0, rd_en:1, cs:1, data_out:138}
# packet received from op mon to coverage is '{data_in:0, address_in:6, wr_en:0, rd_en:1, cs:1, data_out:138}
# functional coverage using get coverage is 49
# functional coverage using get instant coverage is 49
# packet received from ip mon to coverage is '{data_in:37, address_in:7, wr_en:1, rd_en:0, cs:1, data_out:0}
# op data at score is '{data_in:0, address_in:6, wr_en:0, rd_en:1, cs:1, data_out:138}
# op associate array is '{0:191, 1:82, 2:104, 3:0, 4:98, 5:137, 6:138 } and size is 7
# addr = 6
# time: 250 ns, data matched !! exp=138 act=138
#  
# packet at driver is '{data_in:0, address_in:8, wr_en:0, rd_en:1, cs:1, data_out:0}
# ip filter
# op mon data (from vif) is '{data_in:0, address_in:7, wr_en:0, rd_en:1, cs:1, data_out:37}
# packet received from op mon to coverage is '{data_in:0, address_in:7, wr_en:0, rd_en:1, cs:1, data_out:37}
# functional coverage using get coverage is 52
# functional coverage using get instant coverage is 52
# packet received from ip mon to coverage is '{data_in:209, address_in:8, wr_en:1, rd_en:0, cs:1, data_out:0}
# op data at score is '{data_in:0, address_in:7, wr_en:0, rd_en:1, cs:1, data_out:37}
# op associate array is '{0:191, 1:82, 2:104, 3:0, 4:98, 5:137, 6:138, 7:37 } and size is 8
# addr = 7
# time: 260 ns, data matched !! exp=37 act=37
#  
# packet at driver is '{data_in:0, address_in:9, wr_en:0, rd_en:1, cs:1, data_out:0}
# ip filter
# op mon data (from vif) is '{data_in:0, address_in:8, wr_en:0, rd_en:1, cs:1, data_out:209}
# packet received from op mon to coverage is '{data_in:0, address_in:8, wr_en:0, rd_en:1, cs:1, data_out:209}
# functional coverage using get coverage is 55
# functional coverage using get instant coverage is 55
# packet received from ip mon to coverage is '{data_in:91, address_in:9, wr_en:1, rd_en:0, cs:1, data_out:0}
# op data at score is '{data_in:0, address_in:8, wr_en:0, rd_en:1, cs:1, data_out:209}
# op associate array is '{0:191, 1:82, 2:104, 3:0, 4:98, 5:137, 6:138, 7:37, 8:209 } and size is 9
# addr = 8
# time: 270 ns, data matched !! exp=209 act=209
#  
# packet at driver is '{data_in:0, address_in:10, wr_en:0, rd_en:1, cs:1, data_out:0}
# ip filter
# op mon data (from vif) is '{data_in:0, address_in:9, wr_en:0, rd_en:1, cs:1, data_out:91}
# packet received from op mon to coverage is '{data_in:0, address_in:9, wr_en:0, rd_en:1, cs:1, data_out:91}
# functional coverage using get coverage is 57
# functional coverage using get instant coverage is 57
# packet received from ip mon to coverage is '{data_in:0, address_in:10, wr_en:1, rd_en:0, cs:1, data_out:0}
# op data at score is '{data_in:0, address_in:9, wr_en:0, rd_en:1, cs:1, data_out:91}
# op associate array is '{0:191, 1:82, 2:104, 3:0, 4:98, 5:137, 6:138, 7:37, 8:209, 9:91 } and size is 10
# addr = 9
# time: 280 ns, data matched !! exp=91 act=91
#  
# packet at driver is '{data_in:0, address_in:11, wr_en:0, rd_en:1, cs:1, data_out:0}
# ip filter
# op mon data (from vif) is '{data_in:0, address_in:10, wr_en:0, rd_en:1, cs:1, data_out:0}
# packet received from op mon to coverage is '{data_in:0, address_in:10, wr_en:0, rd_en:1, cs:1, data_out:0}
# functional coverage using get coverage is 58
# functional coverage using get instant coverage is 58
# packet received from ip mon to coverage is '{data_in:10, address_in:11, wr_en:1, rd_en:0, cs:1, data_out:0}
# op data at score is '{data_in:0, address_in:10, wr_en:0, rd_en:1, cs:1, data_out:0}
# op associate array is '{0:191, 1:82, 2:104, 3:0, 4:98, 5:137, 6:138, 7:37, 8:209, 9:91, 10:0 } and size is 11
# addr = 10
# time: 290 ns, data matched !! exp=0 act=0
#  
# packet at driver is '{data_in:0, address_in:12, wr_en:0, rd_en:1, cs:1, data_out:0}
# ip filter
# op mon data (from vif) is '{data_in:0, address_in:11, wr_en:0, rd_en:1, cs:1, data_out:10}
# packet received from op mon to coverage is '{data_in:0, address_in:11, wr_en:0, rd_en:1, cs:1, data_out:10}
# functional coverage using get coverage is 59
# functional coverage using get instant coverage is 59
# packet received from ip mon to coverage is '{data_in:13, address_in:12, wr_en:1, rd_en:0, cs:1, data_out:0}
# op data at score is '{data_in:0, address_in:11, wr_en:0, rd_en:1, cs:1, data_out:10}
# op associate array is '{0:191, 1:82, 2:104, 3:0, 4:98, 5:137, 6:138, 7:37, 8:209, 9:91, 10:0, 11:10 } and size is 12
# addr = 11
# time: 300 ns, data matched !! exp=10 act=10
#  
# packet at driver is '{data_in:0, address_in:13, wr_en:0, rd_en:1, cs:1, data_out:0}
# ip filter
# op mon data (from vif) is '{data_in:0, address_in:12, wr_en:0, rd_en:1, cs:1, data_out:13}
# packet received from op mon to coverage is '{data_in:0, address_in:12, wr_en:0, rd_en:1, cs:1, data_out:13}
# functional coverage using get coverage is 60
# functional coverage using get instant coverage is 60
# packet received from ip mon to coverage is '{data_in:199, address_in:13, wr_en:1, rd_en:0, cs:1, data_out:0}
# op data at score is '{data_in:0, address_in:12, wr_en:0, rd_en:1, cs:1, data_out:13}
# op associate array is '{0:191, 1:82, 2:104, 3:0, 4:98, 5:137, 6:138, 7:37, 8:209, 9:91, 10:0, 11:10, 12:13 } and size is 13
# addr = 12
# time: 310 ns, data matched !! exp=13 act=13
#  
# packet at driver is '{data_in:0, address_in:14, wr_en:0, rd_en:1, cs:1, data_out:0}
# ip filter
# op mon data (from vif) is '{data_in:0, address_in:13, wr_en:0, rd_en:1, cs:1, data_out:199}
# packet received from op mon to coverage is '{data_in:0, address_in:13, wr_en:0, rd_en:1, cs:1, data_out:199}
# functional coverage using get coverage is 62
# functional coverage using get instant coverage is 62
# packet received from ip mon to coverage is '{data_in:41, address_in:14, wr_en:1, rd_en:0, cs:1, data_out:0}
# op data at score is '{data_in:0, address_in:13, wr_en:0, rd_en:1, cs:1, data_out:199}
# op associate array is '{0:191, 1:82, 2:104, 3:0, 4:98, 5:137, 6:138, 7:37, 8:209, 9:91, 10:0, 11:10, 12:13, 13:199 } and size is 14
# addr = 13
# time: 320 ns, data matched !! exp=199 act=199
#  
# packet at driver is '{data_in:0, address_in:15, wr_en:0, rd_en:1, cs:1, data_out:0}
# ip filter
# op mon data (from vif) is '{data_in:0, address_in:14, wr_en:0, rd_en:1, cs:1, data_out:41}
# packet received from op mon to coverage is '{data_in:0, address_in:14, wr_en:0, rd_en:1, cs:1, data_out:41}
# functional coverage using get coverage is 63
# functional coverage using get instant coverage is 63
# packet received from ip mon to coverage is '{data_in:128, address_in:15, wr_en:1, rd_en:0, cs:1, data_out:0}
# op data at score is '{data_in:0, address_in:14, wr_en:0, rd_en:1, cs:1, data_out:41}
# op associate array is '{0:191, 1:82, 2:104, 3:0, 4:98, 5:137, 6:138, 7:37, 8:209, 9:91, 10:0, 11:10, 12:13, 13:199, 14:41 } and size is 15
# addr = 14
# time: 330 ns, data matched !! exp=41 act=41
#  
# packet at driver is '{data_in:186, address_in:1, wr_en:1, rd_en:0, cs:1, data_out:0}
# ip filter
# op mon data (from vif) is '{data_in:0, address_in:15, wr_en:0, rd_en:1, cs:1, data_out:128}
# packet received from op mon to coverage is '{data_in:0, address_in:15, wr_en:0, rd_en:1, cs:1, data_out:128}
# functional coverage using get coverage is 64
# functional coverage using get instant coverage is 64
# op data at score is '{data_in:0, address_in:15, wr_en:0, rd_en:1, cs:1, data_out:128}
# op associate array is '{0:191, 1:82, 2:104, 3:0, 4:98, 5:137, 6:138, 7:37, 8:209, 9:91, 10:0, 11:10, 12:13, 13:199, 14:41, 15:128 } and size is 16
# addr = 15
# time: 340 ns, data matched !! exp=128 act=128
#  
# packet at driver is '{data_in:41, address_in:12, wr_en:1, rd_en:0, cs:1, data_out:0}
# ip mon data (from vif) is '{data_in:186, address_in:1, wr_en:1, rd_en:0, cs:1, data_out:0}
# op filter
# packet received from ip mon to coverage is '{data_in:186, address_in:1, wr_en:1, rd_en:0, cs:1, data_out:0}
# ip data at score is '{data_in:186, address_in:1, wr_en:1, rd_en:0, cs:1, data_out:0}
# ip associate array is '{0:191, 1:186, 2:104, 3:23, 4:98, 5:137, 6:138, 7:37, 8:209, 9:91, 10:0, 11:10, 12:13, 13:199, 14:41, 15:128 } and size is 16
# packet at driver is '{data_in:245, address_in:11, wr_en:1, rd_en:0, cs:1, data_out:0}
# ip mon data (from vif) is '{data_in:41, address_in:12, wr_en:1, rd_en:0, cs:1, data_out:0}
# op filter
# ip data at score is '{data_in:41, address_in:12, wr_en:1, rd_en:0, cs:1, data_out:0}
# ip associate array is '{0:191, 1:186, 2:104, 3:23, 4:98, 5:137, 6:138, 7:37, 8:209, 9:91, 10:0, 11:10, 12:41, 13:199, 14:41, 15:128 } and size is 16
# packet at driver is '{data_in:99, address_in:4, wr_en:1, rd_en:0, cs:1, data_out:0}
# ip mon data (from vif) is '{data_in:245, address_in:11, wr_en:1, rd_en:0, cs:1, data_out:0}
# op filter
# ip data at score is '{data_in:245, address_in:11, wr_en:1, rd_en:0, cs:1, data_out:0}
# ip associate array is '{0:191, 1:186, 2:104, 3:23, 4:98, 5:137, 6:138, 7:37, 8:209, 9:91, 10:0, 11:245, 12:41, 13:199, 14:41, 15:128 } and size is 16
# packet at driver is '{data_in:91, address_in:3, wr_en:1, rd_en:0, cs:1, data_out:0}
# ip mon data (from vif) is '{data_in:99, address_in:4, wr_en:1, rd_en:0, cs:1, data_out:0}
# op filter
# ip data at score is '{data_in:99, address_in:4, wr_en:1, rd_en:0, cs:1, data_out:0}
# ip associate array is '{0:191, 1:186, 2:104, 3:23, 4:99, 5:137, 6:138, 7:37, 8:209, 9:91, 10:0, 11:245, 12:41, 13:199, 14:41, 15:128 } and size is 16
# packet at driver is '{data_in:84, address_in:8, wr_en:1, rd_en:0, cs:1, data_out:0}
# ip mon data (from vif) is '{data_in:91, address_in:3, wr_en:1, rd_en:0, cs:1, data_out:0}
# op filter
# ip data at score is '{data_in:91, address_in:3, wr_en:1, rd_en:0, cs:1, data_out:0}
# ip associate array is '{0:191, 1:186, 2:104, 3:91, 4:99, 5:137, 6:138, 7:37, 8:209, 9:91, 10:0, 11:245, 12:41, 13:199, 14:41, 15:128 } and size is 16
# packet at driver is '{data_in:111, address_in:9, wr_en:1, rd_en:0, cs:1, data_out:0}
# ip mon data (from vif) is '{data_in:84, address_in:8, wr_en:1, rd_en:0, cs:1, data_out:0}
# op filter
# ip data at score is '{data_in:84, address_in:8, wr_en:1, rd_en:0, cs:1, data_out:0}
# ip associate array is '{0:191, 1:186, 2:104, 3:91, 4:99, 5:137, 6:138, 7:37, 8:84, 9:91, 10:0, 11:245, 12:41, 13:199, 14:41, 15:128 } and size is 16
# packet at driver is '{data_in:253, address_in:5, wr_en:1, rd_en:0, cs:1, data_out:0}
# ip mon data (from vif) is '{data_in:111, address_in:9, wr_en:1, rd_en:0, cs:1, data_out:0}
# op filter
# ip data at score is '{data_in:111, address_in:9, wr_en:1, rd_en:0, cs:1, data_out:0}
# ip associate array is '{0:191, 1:186, 2:104, 3:91, 4:99, 5:137, 6:138, 7:37, 8:84, 9:111, 10:0, 11:245, 12:41, 13:199, 14:41, 15:128 } and size is 16
# packet at driver is '{data_in:54, address_in:12, wr_en:1, rd_en:0, cs:1, data_out:0}
# ip mon data (from vif) is '{data_in:253, address_in:5, wr_en:1, rd_en:0, cs:1, data_out:0}
# op filter
# ip data at score is '{data_in:253, address_in:5, wr_en:1, rd_en:0, cs:1, data_out:0}
# ip associate array is '{0:191, 1:186, 2:104, 3:91, 4:99, 5:253, 6:138, 7:37, 8:84, 9:111, 10:0, 11:245, 12:41, 13:199, 14:41, 15:128 } and size is 16
# packet at driver is '{data_in:36, address_in:11, wr_en:1, rd_en:0, cs:1, data_out:0}
# ip mon data (from vif) is '{data_in:54, address_in:12, wr_en:1, rd_en:0, cs:1, data_out:0}
# op filter
# ip data at score is '{data_in:54, address_in:12, wr_en:1, rd_en:0, cs:1, data_out:0}
# ip associate array is '{0:191, 1:186, 2:104, 3:91, 4:99, 5:253, 6:138, 7:37, 8:84, 9:111, 10:0, 11:245, 12:54, 13:199, 14:41, 15:128 } and size is 16
# packet at driver is '{data_in:41, address_in:8, wr_en:1, rd_en:0, cs:1, data_out:0}
# ip mon data (from vif) is '{data_in:36, address_in:11, wr_en:1, rd_en:0, cs:1, data_out:0}
# op filter
# ip data at score is '{data_in:36, address_in:11, wr_en:1, rd_en:0, cs:1, data_out:0}
# ip associate array is '{0:191, 1:186, 2:104, 3:91, 4:99, 5:253, 6:138, 7:37, 8:84, 9:111, 10:0, 11:36, 12:54, 13:199, 14:41, 15:128 } and size is 16
# packet at driver is '{data_in:253, address_in:9, wr_en:1, rd_en:0, cs:1, data_out:0}
# ip mon data (from vif) is '{data_in:41, address_in:8, wr_en:1, rd_en:0, cs:1, data_out:0}
# op filter
# ip data at score is '{data_in:41, address_in:8, wr_en:1, rd_en:0, cs:1, data_out:0}
